<svg width="11" height="8" viewBox="0 0 11 8" fill="none" xmlns="http://www.w3.org/2000/svg">
<path d="M0 4.34031L3.65272 8L10.6666 0.993035L9.65965 0L3.65272 5.99996L0.993015 3.34028L0 4.34031Z" fill="black"/>
</svg>
